Working with the dataset
…
Working with the ‘albanian_data_of_interest’ that we created, we
extract descriptive statistics for groups of speakers using the
group_by() function within dplyr. This subsets your data.
Then you can summarise the subsetted data using the
summarise()/summarize() function. Below we
will extract the mean and standard deviation values for duration, using
mean() and sd() respectively.

albanian_data_of_interest$Participant <- as.factor(albanian_data_of_interest$Participant) # I'm changing participant to a factor here, rather than a numerical value. It doesn't impact the below code if you do not do this.
duration_by_participant <- albanian_data_of_interest %>% group_by(Participant) %>% summarise(mean_dur = mean(DUR_ms), sd_dur = sd(DUR_ms))
print(duration_by_participant)

## # A tibble: 29 × 3
##    Participant mean_dur sd_dur
##    <fct>          <dbl>  <dbl>
##  1 2               90.3   23.3
##  2 3              103.    26.5
##  3 4              106.    19.0
##  4 5               85.3   16.5
##  5 6               85.7   30.6
##  6 8               83.2   17.4
##  7 9              100.    19.3
##  8 10             114.    11.6
##  9 11              92.1   28.7
## 10 12             121.    27.9
## # ℹ 19 more rows

This is a good start, but it has ignored the fact that there were two
segments. We want to know the mean and standard deviations for each
segment for each of the speakers. In order to do this, you can add an
additional group, ‘Segment’ to the group_by() function.

duration_summary <- albanian_data_of_interest %>% group_by(Participant, Segment) %>% summarise(mean_dur = mean(DUR_ms), sd_dur = sd(DUR_ms))

## `summarise()` has grouped output by 'Participant'. You can override using the
## `.groups` argument.

print(duration_summary)

## # A tibble: 58 × 4
## # Groups:   Participant [29]
##    Participant Segment mean_dur sd_dur
##    <fct>       <fct>      <dbl>  <dbl>
##  1 2           ç           86.2   14.6
##  2 2           q           94.3   29.7
##  3 3           ç           88.7   15.7
##  4 3           q          117.    28.0
##  5 4           ç           96.9   17.7
##  6 4           q          114.    16.6
##  7 5           ç           76.2   14.1
##  8 5           q           94.4   13.8
##  9 6           ç           70.1   17.3
## 10 6           q          101.    33.4
## # ℹ 48 more rows

Recoding factors

So far, so good. But there is one more issue with this data that we
can resolve using dplyr. The segment labels that have been used in the
data above relate to orthography. Now, let’s say that we want to use the
corresponding IPA symbols. We can change this by recoding the
factor:

duration_summary <- duration_summary %>% mutate(Segment = recode_factor(Segment,  q = "/c/", ç = "/tʃ/"))
print(duration_summary)

## # A tibble: 58 × 4
## # Groups:   Participant [29]
##    Participant Segment mean_dur sd_dur
##    <fct>       <fct>      <dbl>  <dbl>
##  1 2           /tʃ/        86.2   14.6
##  2 2           /c/         94.3   29.7
##  3 3           /tʃ/        88.7   15.7
##  4 3           /c/        117.    28.0
##  5 4           /tʃ/        96.9   17.7
##  6 4           /c/        114.    16.6
##  7 5           /tʃ/        76.2   14.1
##  8 5           /c/         94.4   13.8
##  9 6           /tʃ/        70.1   17.3
## 10 6           /c/        101.    33.4
## # ℹ 48 more rows

Back to number of rows

What if we wanted summarise the number of rows per person. Doing this
individually using nrow(subset()) would prove cumbersome.
We can do this very simply in dplyr, using n() within the
summarise() function. In this case, n()
displays the number of rows:

rows_by_participant <- albanian_data_of_interest %>% group_by(Participant) %>% summarise(num_of_rows = n())
rows_by_participant

## # A tibble: 29 × 2
##    Participant num_of_rows
##    <fct>             <int>
##  1 2                    28
##  2 3                    28
##  3 4                    28
##  4 5                    28
##  5 6                    28
##  6 8                    28
##  7 9                    28
##  8 10                   28
##  9 11                   28
## 10 12                   28
## # ℹ 19 more rows
…
